…
## Understanding Data Structure

Our data are field measurements from forest plots stored in excel (.xls) format, with each plot's data contained in a separate file. In total, we have 452 plots distributed across four different geographical locations, with the files organized accordingly in four folders. 

Before developing any automation functions, let's examine the structure of a single file to understand its layout.


``` r
# Read a sample file
test_file <- read_excel("data/Delnice/5-1053-10.xls")

# View the structure
print(test_file)
#> # A tibble: 34 × 22
#>    `Formular TRAKT` ...2  ...3  ...4  ...5  ...6   ...7  ...8  ...9  ...10 ...11
#>    <chr>            <chr> <chr> <chr> <chr> <chr>  <chr> <chr> <chr> <chr> <chr>
#>  1 <NA>             <NA>  <NA>  <NA>  <NA>  <NA>   <NA>  <NA>  <NA>  <NA>  <NA> 
#>  2 STRATUM          <NA>  <NA>  <NA>  <NA>  Broj … <NA>  <NA>  11    Broj… <NA> 
#>  3 DATUM            <NA>  <NA>  <NA>  <NA>  <NA>   <NA>  <NA>  Koor… <NA>  <NA> 
#>  4 1.               13    <NA>  9     <NA>  2007   <NA>  <NA>  Refe… <NA>  <NA> 
#>  5 2.               <NA>  <NA>  <NA>  <NA>  <NA>   <NA>  <NA>  x     <NA>  5463…
#>  6 <NA>             DD    <NA>  MM    <NA>  GG     <NA>  <NA>  y     <NA>  5047…
#>  7 <NA>             <NA>  <NA>  <NA>  <NA>  <NA>   <NA>  <NA>  <NA>  <NA>  <NA> 
#>  8 VRIJEME          1     <NA>  2     <NA>  <NA>   <NA>  <NA>  <NA>  <NA>  <NA> 
#>  9 <NA>             sat   min   sat   <NA>  min    <NA>  <NA>  <NA>  <NA>  <NA> 
#> 10 Odlazak          10    15    <NA>  <NA>  <NA>   <NA>  <NA>  <NA>  <NA>  <NA> 
#> # ℹ 24 more rows
#> # ℹ 11 more variables: ...12 <chr>, ...13 <dbl>, ...14 <chr>, ...15 <dbl>,
#> #   ...16 <lgl>, ...17 <lgl>, ...18 <lgl>, ...19 <chr>, ...20 <lgl>,
#> #   ...21 <lgl>, ...22 <chr>
```
…
